Google restaurant reviews in Kuala Lumpur, Petaling Jaya and Shah Alam, Malaysia
…
Let’s review what we’ve learnt from the datasets:

Reviews skew very heavily towards five stars. Roughly half of all reviews give five stars. This means that Google Maps and TripAdvisor should be used to decide where not to eat, as opposed as where to eat since five stars means a restaurant could mean anything from “met expectations” to “truly exceptional”. Though much less numerous, one-, two- and three-starred reviews are much more informative than reading five star reviews. I will try sorting restaurant reviews by the lowest first, so I can avoid places that could be very disappointing.

In fact, re-sorting your data will likely provide better results. Since you can also pay Google for visibility, looking at the tops results provides a very distorted view of the area in question. It is better to look through data without

In spite of all this, I still haven’t learnt anything that I instinctually did not know. In my day-to-day life, when engaging with online reviews, I’m still forced to engage with reviews individually, apart from the summary chart

That the places where food is most commonly consumed, outside the home.

Outside of the home, hawker centres and coffee shops are places where food is most commonly consumed. Yet these businesses are not reviewed with anywhere the same frequency as the casual western eateries or chinese restaurants/dai chows. Food we consume every day is not subject to the same expectations as fine dining. But even more casual dining options warrant reviews.

Or, the system could be skewed against hawkers. It is difficult to mark individual hawkers since they operate from within the premises of another business. Additionally, hawkers are much less likely to engage with Google or Trip Advisor to curate or market their online presence, leading to these platforms being blind to the needs of hawkers and continue to cater towards restaurants. Restaurants do spend on marketing (i.e. paying for visibility on Google Maps)

# A tibble: 53 × 2
   restaurant                                         n
   <chr>                                          <int>
 1 Din Tai Fung 鼎泰豐 at The Gardens Mall          792
 2 Old Shanghai                                     599
 3 Lai Po Heen                                      336
 4 Ah Sang Bak Kut Teh                              300
 5 Boon Signature Roast Pork                        300
 6 Din Tai Fung 鼎泰豐 at 1 Utama Shopping Centre   300
 7 Dolly Dim Sum, NU Sentral                        300
 8 Fatty Mee Hoon Kuih                              300
 9 Hakka Restaurant                                 300
10 Nam Heong Vintage, Pavilion Elite                300
# ℹ 43 more rows
…
